<?xml version="1.0" standalone="no"?>
<!DOCTYPE svg PUBLIC "-//W3C//DTD SVG 20010904//EN"
 "http://www.w3.org/TR/2001/REC-SVG-20010904/DTD/svg10.dtd">
<svg version="1.0" xmlns="http://www.w3.org/2000/svg"
 width="5830.000000pt" height="1820.000000pt" viewBox="0 0 5830.000000 1820.000000"
 preserveAspectRatio="xMidYMid meet">
<metadata>
Created by potrace 1.15, written by Peter Selinger 2001-2017
</metadata>
<g transform="translate(0.000000,1820.000000) scale(0.100000,-0.100000)"
fill="#ffffff" stroke="none">
<path d="M8805 11184 c-927 -140 -1636 -843 -1779 -1760 -9 -56 -16 -119 -16
-140 0 -74 -7 -84 -57 -84 -68 0 -245 -28 -357 -56 -828 -207 -1451 -896
-1570 -1734 -24 -168 -29 -305 -17 -455 40 -497 239 -943 576 -1294 317 -330
693 -533 1160 -624 l110 -21 2130 -3 c1603 -3 2137 -1 2158 8 49 20 69 81 45
134 -27 59 114 55 -2128 55 -1378 0 -2093 3 -2158 11 -657 71 -1229 477 -1511
1071 -78 165 -135 339 -161 498 -88 540 60 1102 401 1515 64 78 217 230 294
292 216 174 528 318 807 372 90 17 311 41 384 41 13 0 35 11 50 24 27 22 28
28 40 182 39 490 210 875 538 1213 365 374 833 571 1356 571 503 0 947 -179
1310 -526 64 -61 127 -114 143 -117 42 -11 95 16 112 56 25 60 7 94 -106 201
-333 317 -718 504 -1170 570 -133 20 -456 20 -584 0z"/>
<path d="M11537 10129 c-28 -16 -49 -68 -43 -104 9 -48 41 -70 143 -99 197
-56 416 -166 593 -297 47 -34 140 -117 208 -183 116 -114 125 -121 164 -121
33 0 45 6 69 33 62 69 26 135 -167 307 -230 204 -478 347 -761 439 -114 36
-174 44 -206 25z"/>
</g>
</svg>
