<?xml version="1.0" standalone="no"?>
<!DOCTYPE svg PUBLIC "-//W3C//DTD SVG 20010904//EN"
 "http://www.w3.org/TR/2001/REC-SVG-20010904/DTD/svg10.dtd">
<svg version="1.0" xmlns="http://www.w3.org/2000/svg"
 width="5830.000000pt" height="1820.000000pt" viewBox="0 0 5830.000000 1820.000000"
 preserveAspectRatio="xMidYMid meet">
<metadata>
Created by potrace 1.15, written by Peter Selinger 2001-2017
</metadata>
<g transform="translate(0.000000,1820.000000) scale(0.100000,-0.100000)"
fill="#000000" stroke="none">
<path d="M25071 9196 c-53 -29 -50 91 -51 -2083 0 -1547 3 -2028 12 -2048 13
-29 55 -55 88 -55 33 0 75 26 88 55 9 20 12 284 12 1081 0 674 4 1090 11 1152
26 240 86 444 196 662 187 371 472 656 843 843 878 442 1925 154 2463 -680
152 -234 254 -528 286 -825 7 -62 11 -479 11 -1153 0 -1147 -2 -1097 55 -1123
51 -24 112 -4 133 43 19 42 17 2108 -3 2277 -57 486 -258 901 -605 1248 -347
347 -763 548 -1248 605 -847 99 -1684 -339 -2091 -1095 l-51 -95 0 562 c0 414
-3 569 -12 588 -22 48 -88 68 -137 41z"/>
</g>
</svg>
