<?xml version="1.0" standalone="no"?>
<!DOCTYPE svg PUBLIC "-//W3C//DTD SVG 20010904//EN"
 "http://www.w3.org/TR/2001/REC-SVG-20010904/DTD/svg10.dtd">
<svg version="1.0" xmlns="http://www.w3.org/2000/svg"
 width="5830.000000pt" height="1820.000000pt" viewBox="0 0 5830.000000 1820.000000"
 preserveAspectRatio="xMidYMid meet">
<metadata>
Created by potrace 1.15, written by Peter Selinger 2001-2017
</metadata>
<g transform="translate(0.000000,1820.000000) scale(0.100000,-0.100000)"
fill="#000000" stroke="none">
<path d="M38101 12206 c-13 -7 -30 -24 -37 -37 -19 -34 -21 -7064 -2 -7104 13
-29 55 -55 88 -55 34 0 76 27 88 57 8 20 13 349 15 1148 3 1004 5 1129 21
1205 86 432 255 758 543 1042 346 343 778 533 1263 555 535 24 1052 -179 1432
-564 288 -290 463 -631 533 -1037 13 -76 15 -251 15 -1208 0 -1216 -3 -1160
55 -1186 53 -24 114 -4 134 45 9 21 11 320 8 1188 l-3 1160 -27 122 c-94 422
-280 764 -578 1062 -189 189 -402 338 -628 437 -805 353 -1722 187 -2339 -426
-167 -165 -268 -298 -379 -500 l-53 -95 0 2062 c0 1577 -3 2068 -12 2088 -22
48 -88 68 -137 41z"/>
</g>
</svg>
