<?xml version="1.0" standalone="no"?>
<!DOCTYPE svg PUBLIC "-//W3C//DTD SVG 20010904//EN"
 "http://www.w3.org/TR/2001/REC-SVG-20010904/DTD/svg10.dtd">
<svg version="1.0" xmlns="http://www.w3.org/2000/svg"
 width="5830.000000pt" height="1820.000000pt" viewBox="0 0 5830.000000 1820.000000"
 preserveAspectRatio="xMidYMid meet">
<metadata>
Created by potrace 1.15, written by Peter Selinger 2001-2017
</metadata>
<g transform="translate(0.000000,1820.000000) scale(0.100000,-0.100000)"
fill="#000000" stroke="none">
<path d="M24061 9196 c-53 -29 -50 91 -51 -2083 0 -1547 3 -2028 12 -2048 13
-29 55 -55 88 -55 33 0 75 26 88 55 9 20 12 501 12 2045 0 1544 -3 2025 -12
2045 -22 48 -88 68 -137 41z"/>
</g>
</svg>
